C:\Users\KALLA CHAITANYA\Desktop\java interview\promise\smi-parent\smi-web\src\main\java\com\zen\smi\response\AppError.java
C:\Users\KALLA CHAITANYA\Desktop\java interview\promise\smi-parent\smi-web\src\main\java\com\zen\smi\controller\SessionExpiredInterceptor.java
C:\Users\KALLA CHAITANYA\Desktop\java interview\promise\smi-parent\smi-web\src\main\java\com\zen\smi\exception\InvalidLoginException.java
C:\Users\KALLA CHAITANYA\Desktop\java interview\promise\smi-parent\smi-web\src\main\java\com\zen\smi\security\SMIAuthority.java
C:\Users\KALLA CHAITANYA\Desktop\java interview\promise\smi-parent\smi-web\src\main\java\com\zen\smi\controller\HomePageController.java
C:\Users\KALLA CHAITANYA\Desktop\java interview\promise\smi-parent\smi-web\src\main\java\com\zen\smi\controller\BaseController.java
C:\Users\KALLA CHAITANYA\Desktop\java interview\promise\smi-parent\smi-web\src\main\java\com\zen\smi\response\AppSuccess.java
C:\Users\KALLA CHAITANYA\Desktop\java interview\promise\smi-parent\smi-web\src\main\java\com\zen\smi\response\RuleBulkTestResponse.java
C:\Users\KALLA CHAITANYA\Desktop\java interview\promise\smi-parent\smi-web\src\main\java\com\zen\smi\security\SMIAuthenticationProvider.java
